name,survey_type,direction,vessel,tool,date,polygon
l_150801064000,МЛЭ,l,Профессор Зинкевич,Klein_L,01.08.2015,"33.19213874939552 66.54432919367711,33.19195459060449 66.54327746632289,33.192744590604484 66.54313913632289,33.19292874939551 66.54419086367712,33.19213874939552 66.54432919367711"
l_150801074400,ГЛБО,l,Профессор Зинкевич,Klein_L,01.08.2015,"33.2722803668002 66.53400218080122,33.271752973199796 66.53083781919878,33.277062973199804 66.52995281919878,33.277590366800204 66.53311718080123,33.2722803668002 66.53400218080122"
l_150723114800,ГЛБО,l,Профессор Зинкевич,Klein_L,23.07.2015,"33.20020507063185 66.54502393476238,33.19975158936815 66.54075606523762,33.27769325936815 66.53247439523761,33.278146740631854 66.5367422647624,33.20020507063185 66.54502393476238"
l_150724071400,ГЛБО,l,Профессор Зинкевич,Klein_L,24.07.2015,"33.12229485696958 66.55784245017347,33.12228180303042 66.55655420982654,33.119978473030415 66.55657754982654,33.11999152696958 66.55786579017347,33.12229485696958 66.55784245017347"
x_PROF03,ГЛБО,x,Профессор Зинкевич,C3D_L,23.09.2015,"32.89076345307936 66.58389980319944,32.89067651358731 66.58229689680056,32.92672153025398 66.58034186346723,32.92680846974603 66.58194476986611,32.89076345307936 66.58389980319944"
x_PROF04,ГЛБО,x,Профессор Зинкевич,C3D_L,23.09.2015,"32.889818612791984 66.58367055095741,32.889734720541355 66.58216614904259,32.92586970387469 66.5801510990426,32.92595359612532 66.58165550095741,32.889818612791984 66.58367055095741"
x_PROF05,ГЛБО,x,Профессор Зинкевич,C3D_X,23.09.2015,"32.924722386788204 66.5814526058394,32.924630879878464 66.57985072749392,32.889852613211794 66.58183742749394,32.889944120121534 66.58343930583942,32.924722386788204 66.5814526058394"
x_7_9_1_15072016,МЛЭ,x,Профессор Зинкевич,Klein_X,15.07.2016,"33.1818419432655 66.52529384988813,33.1796959923958 66.527246621446,33.1720754590622 66.51887222144568,33.1742214099319 66.51691944988781,33.1818419432655 66.52529384988813"
x_12_15_30072016,ГЛБО,x,Профессор Зинкевич,Klein_X,30.07.2016,"33.20048154906434 66.5328897020971,33.19871988659828 66.53533170257096,33.22136548659907 66.55166826923818,33.22312714906513 66.54922626876433,33.20048154906434 66.5328897020971"
x_27-29_28072016,ГЛБО,x,Профессор Зинкевич,Klein_X,28.07.2016,"33.22605169752027 66.52032262981072,33.22388613814412 66.52224590818975,33.247295004811605 66.54860365819066,33.24946056418776 66.54668037981163,33.22605169752027 66.52032262981072"
x_34-38_22072016,ГЛБО,x,Профессор Зинкевич,Klein_X,22.07.2016,"33.26274934280376 66.5408873898468,33.26016982619653 66.54183114815507,33.255374342863036 66.5287239481546,33.257953859470256 66.5277801898463,33.26274934280376 66.5408873898468"
x_37-39_22072016,ГЛБО,x,Профессор Зинкевич,Klein_X,22.07.2016,"33.26739902753699 66.53995462115152,33.2652618081303 66.54192278351697,33.25084202479646 66.52626440018311,33.25297924420315 66.52429623781767,33.26739902753699 66.53995462115152"
x_38-40_22072016,ГЛБО,x,Профессор Зинкевич,Klein_X,22.07.2016,"33.257618968627156 66.5271096707327,33.25572640037281 66.52940876726825,33.27115595037335 66.54211005060202,33.27304851862769 66.53981095406647,33.257618968627156 66.5271096707327"
x_39-41_22072016,ГЛБО,x,Профессор Зинкевич,Klein_X,22.07.2016,"33.25285213957369 66.52412519151322,33.250969129425926 66.52643544648755,33.269586396093246 66.54160974648805,33.27146940624101 66.53929949151373,33.25285213957369 66.52412519151322"
x_40-42_22072016,ГЛБО,x,Профессор Зинкевич,Klein_X,22.07.2016,"33.25723767283476 66.52124952898015,33.25478109616516 66.522582375687,33.26510212949884 66.54160512568767,33.267558706168444 66.54027227898082,33.25723767283476 66.52124952898015"
x_41-43_22072016,ГЛБО,x,Профессор Зинкевич,Klein_X,22.07.2016,"33.27170239984254 66.53966160196914,33.26935340249172 66.54124763603264,33.257229185824634 66.5232910526987,33.259578183175456 66.52170501863519,33.27170239984254 66.53966160196914"
x_42-44_22072016,ГЛБО,x,Профессор Зинкевич,Klein_X,22.07.2016,"33.27320474206714 66.54003138374146,33.27099972693388 66.54188962092702,33.25494274359999 66.52283613759303,33.25714775873326 66.52097790040747,33.27320474206714 66.54003138374146"
x_47-49_28072016,ГЛБО,x,Профессор Зинкевич,Klein_X,28.07.2016,"33.27043603853664 66.51745188205727,33.26830163046422 66.51942525594299,33.2886389971316 66.54142222261042,33.290773405204014 66.53944884872472,33.27043603853664 66.51745188205727"
x_51-53_28072016,ГЛБО,x,Профессор Зинкевич,Klein_X,28.07.2016,"33.29962135414806 66.53871696338265,33.29748621485482 66.5406888746191,33.27402204818734 66.5152824246182,33.27615718748057 66.51331051338177,33.29962135414806 66.53871696338265"
x_55-57_28072016,ГЛБО,x,Профессор Зинкевич,Klein_X,28.07.2016,"33.283055525989106 66.51053188960753,33.280926743012614 66.51251434839223,33.30660254301352 66.54008526505989,33.30873132599001 66.53810280627519,33.283055525989106 66.51053188960753"
x_63-65_28072016,ГЛБО,x,Профессор Зинкевич,Klein_X,28.07.2016,"33.29689059824752 66.50521115635979,33.29477283742185 66.5072108483063,33.324170637422874 66.53834439830739,33.32628839824854 66.53634470636088,33.29689059824752 66.50521115635979"
x_71-73_28072016,ГЛБО,x,Профессор Зинкевич,Klein_X,28.07.2016,"33.31371191784485 66.50259822420975,33.311592117825704 66.50459521378946,33.341390751160084 66.53622639712391,33.34351055117923 66.5342294075442,33.31371191784485 66.50259822420975"
x_74-76_25072016,ГЛБО,x,Профессор Зинкевич,Klein_X,25.07.2016,"33.327772673828285 66.50957510103842,33.32545559517659 66.51122810362796,33.31984789517639 66.50336757029433,33.32216497382808 66.50171456770481,33.327772673828285 66.50957510103842"
x_74-78_29062016,ГЛБО,x,Профессор Зинкевич,Klein_X,29.06.2016,"33.34626740850779 66.51871700372737,33.345769727165084 66.52189020093968,33.330894927164564 66.51955725093961,33.331392608507265 66.5163840537273,33.34626740850779 66.51871700372737"
x_75-77_22072016,ГЛБО,x,Профессор Зинкевич,Klein_X,22.07.2016,"33.35164887707454 66.51564218704564,33.34898709193199 66.51511815095441,33.346065541931885 66.52995785095491,33.348727327074435 66.53048188704615,33.35164887707454 66.51564218704564"
x_75-77_28072016,ГЛБО,x,Профессор Зинкевич,Klein_X,28.07.2016,"33.351463640996414 66.53237804774913,33.349339161343444 66.53436759025215,33.327872811342694 66.5114453235847,33.32999729099566 66.50945578108167,33.351463640996414 66.53237804774913"
x_75-78_25072016,ГЛБО,x,Профессор Зинкевич,Klein_X,25.07.2016,"33.3493547595189 66.51731105875835,33.34764727615417 66.51981034590861,33.32280319281996 66.50283716257466,33.3245106761847 66.5003378754244,33.3493547595189 66.51731105875835"
x_76-78_22072016,ГЛБО,x,Профессор Зинкевич,Klein_X,22.07.2016,"33.351944613885934 66.53081868447778,33.34981242178729 66.53279655352345,33.335804288453474 66.51769543685623,33.337936480552116 66.51571756781057,33.351944613885934 66.53081868447778"
x_76-78_25072016,ГЛБО,x,Профессор Зинкевич,Klein_X,25.07.2016,"33.34978431833978 66.5185204427958,33.34800848399997 66.52095056187119,33.323121250665764 66.50276396187057,33.324897085005574 66.5003338427952,33.34978431833978 66.5185204427958"
x_77-79_22072016,ГЛБО,x,Профессор Зинкевич,Klein_X,22.07.2016,"33.337859446167364 66.51560865166644,33.335881322838226 66.51780435300034,33.35260152283881 66.53286770300087,33.35457964616795 66.53067200166697,33.337859446167364 66.51560865166644"
x_77-80_25072016,ГЛБО,x,Профессор Зинкевич,Klein_X,25.07.2016,"33.35281716467648 66.51733885106346,33.351422037663504 66.51944838693679,33.32522088766259 66.5021204369362,33.326616014675565 66.50001090106286,33.35281716467648 66.51733885106346"
x_78-80_22072016,ГЛБО,x,Профессор Зинкевич,Klein_X,22.07.2016,"33.34447499765807 66.51524887923645,33.34223873801463 66.51705499209697,33.354479654681725 66.53221122543086,33.356715914325164 66.53040511257034,33.34447499765807 66.51524887923645"
x_78-80_25072016,ГЛБО,x,Профессор Зинкевич,Klein_X,25.07.2016,"33.35480002366303 66.51638459142141,33.35312991201042 66.51891991324545,33.327097212009505 66.50177119657818,33.32876732366212 66.49923587475413,33.35480002366303 66.51638459142141"
x_79-81_22072016,ГЛБО,x,Профессор Зинкевич,Klein_X,22.07.2016,"33.35477369815923 66.53099461129526,33.35240747084753 66.53254509337259,33.3421737541805 66.51692717670538,33.3445399814922 66.51537669462805,33.35477369815923 66.53099461129526"
x_79-81_25072016,ГЛБО,x,Профессор Зинкевич,Klein_X,25.07.2016,"33.33062550224171 66.49910267225924,33.3288373000967 66.5007333657397,33.34611876676397 66.51968404907372,33.34790696890898 66.51805335559324,33.33062550224171 66.49910267225924"
x_79-82_25072016,ГЛБО,x,Профессор Зинкевич,Klein_X,25.07.2016,"33.321814307739636 66.50120886321955,33.320269194598175 66.50385590811291,33.3477284612658 66.51988422478014,33.34927357440726 66.51723717988678,33.321814307739636 66.50120886321955"
x_80-82_22072016,ГЛБО,x,Профессор Зинкевич,Klein_X,22.07.2016,"33.34912462782453 66.51469309219078,33.34688017451517 66.51648467914262,33.35938529118227 66.5321507624765,33.36162974449163 66.53035917552465,33.34912462782453 66.51469309219078"
x_81-83_22072016,ГЛБО,x,Профессор Зинкевич,Klein_X,22.07.2016,"33.35684851478233 66.53070383000411,33.35434705422456 66.53191250799703,33.34675167089097 66.51619322466317,33.349253131448734 66.51498454667025,33.35684851478233 66.53070383000411"
x_82-84_22072016,ГЛБО,x,Профессор Зинкевич,Klein_X,22.07.2016,"33.36169620728597 66.53049198674168,33.35931882838793 66.5320179512595,33.34912929505424 66.51614315125894,33.35150667395229 66.51461718674112,33.36169620728597 66.53049198674168"
x_83-85_1_01072016,ГЛБО,x,Профессор Зинкевич,Klein_X,01.07.2016,"33.3547287803527 66.51548945324765,33.353350988654086 66.51687285141908,33.33623063865348 66.49982188475182,33.3376084303521 66.4984384865804,33.3547287803527 66.51548945324765"
x_83-85_22072016,ГЛБО,x,Профессор Зинкевич,Klein_X,22.07.2016,"33.34863612283174 66.53085602399813,33.34615674617458 66.52958371400295,33.35317092950816 66.51591503066913,33.35565030616532 66.5171873406643,33.34863612283174 66.53085602399813"
x_87-90_01072016,ГЛБО,x,Профессор Зинкевич,Klein_X,01.07.2016,"33.348478222570755 66.49522833427613,33.34628997976889 66.49711703705587,33.36238079643613 66.51575978705652,33.36456903923799 66.5138710842768,33.348478222570755 66.49522833427613"
x_88-90_01072016,ГЛБО,x,Профессор Зинкевич,Klein_X,01.07.2016,"33.364542399064504 66.51382853497796,33.36240743660962 66.51580233635536,33.345445219942356 66.49745515302139,33.34758018239724 66.49548135164399,33.364542399064504 66.51382853497796"
x_88-91_01072016,ГЛБО,x,Профессор Зинкевич,Klein_X,01.07.2016,"33.372167417721066 66.52053563092633,33.37003145128691 66.52250840707414,33.36891525128687 66.52129987374076,33.371051217721025 66.51932709759296,33.372167417721066 66.52053563092633"
x_91-95_18072016,ГЛБО,x,Профессор Зинкевич,Klein_X,18.07.2016,"33.38803225411298 66.52718085146458,33.385701914896096 66.52880805320305,33.37954571489589 66.5199916698694,33.38187605411277 66.51836446813093,33.38803225411298 66.52718085146458"
x_91-97_18072016,ГЛБО,x,Профессор Зинкевич,Klein_X,18.07.2016,"33.36211985509446 66.50522507034809,33.36097521391285 66.50815026765129,33.37975801391351 66.5155000509849,33.38090265509512 66.512574853681,33.36211985509446 66.50522507034809"
x_103-105_21072016,ГЛБО,x,Профессор Зинкевич,Klein_X,21.07.2016,"33.39793279773887 66.50807258459372,33.39572057127093 66.50992172007255,33.405647804604605 66.52179823673963,33.407860031072545 66.51994910126079,33.39793279773887 66.50807258459372"
x_107-109_21072016,ГЛБО,x,Профессор Зинкевич,Klein_X,21.07.2016,"33.41694840549595 66.51923319439973,33.41498143018185 66.52144444360063,33.40140639684803 66.50936902693356,33.403373372162136 66.50715777773266,33.41694840549595 66.51923319439973"
x_111-113_21072016,ГЛБО,x,Профессор Зинкевич,Klein_X,21.07.2016,"33.42039377831078 66.50459175212244,33.417730757367245 66.50407638587683,33.414633407367134 66.52008113587738,33.41729642831067 66.520596502123,33.42039377831078 66.50459175212244"
x_114-117_21072016,ГЛБО,x,Профессор Зинкевич,Klein_X,21.07.2016,"33.434302874060236 66.51768207267705,33.4322214949521 66.51973796532323,33.41802157828494 66.50536201532272,33.42010295739308 66.50330612267652,33.434302874060236 66.51768207267705"
x_122-125_21072016,ГЛБО,x,Профессор Зинкевич,Klein_X,21.07.2016,"33.43725629324415 66.50471821253284,33.436088075768424 66.50763155879991,33.42587759243473 66.50353727546643,33.42704580991045 66.50062392919935,33.43725629324415 66.50471821253284"
x_130-135_29062016,ГЛБО,x,Профессор Зинкевич,Klein_X,29.06.2016,"33.45302476236304 66.50053442939071,33.45091887331727 66.502555175275,33.46089643998429 66.51295314194206,33.46300232903006 66.51093239605777,33.45302476236304 66.50053442939071"
l_0_28062016,ГЛБО,l,Профессор Зинкевич,Klein_L,28.06.2016,"33.182689 66.553527,33.184922 66.556205,33.555467 66.501483,33.55251 66.498542,33.182689 66.553527"
l_2-5_20072016,ГЛБО,l,Профессор Зинкевич,Klein_L,20.07.2016,"33.216648778 66.5395182431,33.215533402 66.5429757999,33.2189697798 66.5429710367,33.2766420976 66.5346636299,33.2755027979 66.5351873024,33.1861172022 66.548164906,33.188100485 66.5507056414,33.2786379162 66.5375944606,33.2806033319 66.5377865781,33.4729577634 66.5094797344,33.4760103091 66.5067316883,33.4740198182 66.5051727023,33.4702398367 66.5040103338,33.4565161464 66.5040509593,33.216157935 66.5395189209,33.216648778 66.5395182431,33.216648778 66.5395182431"
l_4_27062016,ГЛБО,l,Профессор Зинкевич,Klein_L,27.06.2016,"33.149952 66.550635,33.152305 66.553323,33.446363 66.509938,33.442513 66.50767,33.149952 66.550635"
l_2_27062016,ГЛБО,l,Профессор Зинкевич,Klein_L,27.06.2016,"33.177297 66.550518,33.177658 66.553293,33.446007 66.513942,33.443053 66.511425,33.177297 66.550518"
l_(-1)-(-2)_1_15072016,ГЛБО,l,Профессор Зинкевич,Klein_L,15.07.2016,"33.26736423853035 66.54699533844736,33.26687433047033 66.54382346622147,33.24682994713629 66.54691939955491,33.24731985519631 66.55009127178079,33.26736423853035 66.54699533844736"
l_0-(-1)_21072016,ГЛБО,l,Профессор Зинкевич,Klein_L,21.07.2016,"33.44135688220668 66.51907004376783,33.44085945347288 66.51589306089905,33.43301347013927 66.51712152756573,33.43351089887307 66.52029851043451,33.44135688220668 66.51907004376783"
l_3-4_1_18072016,ГЛБО,l,Профессор Зинкевич,Klein_L,18.07.2016,"33.38096956590695 66.5207644635768,33.38045220310171 66.51759167442353,33.44342183643725 66.50732369108982,33.44393919924249 66.51049648024309,33.38096956590695 66.5207644635768"
l_3-5_20072016,ГЛБО,l,Профессор Зинкевич,Klein_L,20.07.2016,"33.17280584269874 66.54733888266358,33.172619092961995 66.54860865533877,33.18074474296228 66.54980372200548,33.18093149269903 66.54853394933029,33.17280584269874 66.54733888266358"
l_4-1_20072016,ГЛБО,l,Профессор Зинкевич,Klein_L,20.07.2016,"33.20489575980554 66.54306974808385,33.204657242524114 66.54181248991812,33.17528345918975 66.54738505658497,33.175521976471174 66.54864231475071,33.20489575980554 66.54306974808385"
l_5_4_20072016,ГЛБО,l,Профессор Зинкевич,Klein_L,20.07.2016,"33.215874863491756 66.54179812677111,33.21582030550533 66.5407253445641,33.213828755505254 66.54082662789743,33.213883313491685 66.54189941010446,33.215874863491756 66.54179812677111"
l_6_17072016,ГЛБО,l,Профессор Зинкевич,Klein_L,17.07.2016,"33.29626283336685 66.52845565938426,33.29579463563586 66.52527894528328,33.25116696896763 66.53185636195015,33.25163516669863 66.53503307605114,33.29626283336685 66.52845565938426"
l_7_1_21072016,ГЛБО,l,Профессор Зинкевич,Klein_L,21.07.2016,"33.43093681967874 66.5067697571985,33.43048088266675 66.50358504746754,33.40032789933236 66.507901880801,33.40078383634435 66.51108659053196,33.43093681967874 66.5067697571985"
l_7_8_21072016,ГЛБО,l,Профессор Зинкевич,Klein_L,21.07.2016,"33.402600352199926 66.50985914186278,33.40217941681024 66.50666766280342,33.39661621681005 66.50740141280347,33.39703715219974 66.51059289186283,33.402600352199926 66.50985914186278"
l_9_2_30072016,ГЛБО,l,Профессор Зинкевич,Klein_L,30.07.2016,"33.43209932237341 66.5002614445704,33.43167664663884 66.49707146009517,33.364875829969826 66.50592262676214,33.365298505704395 66.50911261123737,33.43209932237341 66.5002614445704"
l_9_11_29062016,ГЛБО,l,Профессор Зинкевич,Klein_L,29.06.2016,"33.19054021453886 66.53094557953916,33.19010445445643 66.53412719179542,33.204620521123616 66.53611534179547,33.20505628120604 66.53293372953922,33.19054021453886 66.53094557953916"
l_9_1_29062016,ГЛБО,l,Профессор Зинкевич,Klein_L,29.06.2016,"33.20264029407232 66.53325997191558,33.201832441590476 66.53633576608581,33.19896054159038 66.53558146608579,33.19976839407222 66.53250567191556,33.20264029407232 66.53325997191558"
l_11-12_25072016,ГЛБО,l,Профессор Зинкевич,Klein_L,25.07.2016,"33.36643076389623 66.50732660524072,33.366052605111406 66.50413003275867,33.32641878844335 66.50881876609213,33.326796947228175 66.51201533857419,33.36643076389623 66.50732660524072"
l_15_30062016,ГЛБО,l,Профессор Зинкевич,Klein_L,30.06.2016,"33.20701358011583 66.52485305125008,33.20661958888063 66.52166565341719,33.1500932555453 66.5286528200841,33.15048724678051 66.531840217917,33.20701358011583 66.52485305125008"
l_17-18_1_25072016,ГЛБО,l,Профессор Зинкевич,Klein_L,25.07.2016,"33.3263732076963 66.50229387066189,33.32550762797517 66.49981083400378,33.329747477975324 66.49833283400375,33.33061305769645 66.50081587066185,33.3263732076963 66.50229387066189"
xl_105-124_0-7_21072016,ГЛБО,xl,Профессор Зинкевич,Klein_XL,21.07.2016,"33.407617862217954 66.5221452407151,33.405951840125866 66.51960306395196,33.42991164012671 66.50390094728476,33.43157766221879 66.5064431240479,33.407617862217954 66.5221452407151"
xll_105-124_0-7_21072016,ГЛБО,xl,Профессор Зинкевич,Klein_XL,21.07.2016,"33.2149468012 66.549177619,33.2150213178 66.5491888023,33.2151208012 66.549203169,33.2151954512 66.549213469,33.2152952345 66.549226819"
x_9-10_2_29062016,ГЛБО,x,Профессор Зинкевич,C3D_X,29.06.2016,"33.17745577242618 66.51810539540875,33.17595426090715 66.51928633792458,33.17694737757383 66.5205490379246,33.17844888909285 66.51936809540877,33.17745577242618 66.51810539540875"
x_27-37_28072016,ГЛБО,x,Профессор Зинкевич,C3D_X,28.07.2016,"33.26002207471341 66.5429621579817,33.25287912528658 66.5494922420183,33.229818141953245 66.52426692535163,33.23696109138008 66.51773684131503,33.26002207471341 66.5429621579817"
x_33-41_22072016,ГЛБО,x,Профессор Зинкевич,C3D_X,22.07.2016,"33.263946979369436 66.53585776891946,33.25733205396389 66.53924039774721,33.25236420396389 66.52952548108054,33.258979129369436 66.52614285225279,33.263946979369436 66.53585776891946"
x_34-42_22072016,ГЛБО,x,Профессор Зинкевич,C3D_X,22.07.2016,"33.26985270308615 66.53835857322919,33.26429413024719 66.54382019343745,33.249345263580516 66.52860596010414,33.25490383641948 66.52314433989588,33.26985270308615 66.53835857322919"
x_35-43_22072016,ГЛБО,x,Профессор Зинкевич,C3D_X,22.07.2016,"33.258315029570966 66.52491614829684,33.25302830376236 66.53075218503649,33.267764720429035 66.54410155170316,33.27305144623764 66.53826551496351,33.258315029570966 66.52491614829684"
x_36-44_22072016,ГЛБО,x,Профессор Зинкевич,C3D_X,22.07.2016,"33.2546012963782 66.52275503812024,33.2496478036218 66.52899526187976,33.26748312028847 66.5431529452131,33.27243661304487 66.53691272145358,33.2546012963782 66.52275503812024"
x_37-45_22072016,ГЛБО,x,Профессор Зинкевич,C3D_X,22.07.2016,"33.26123088763796 66.51976375877484,33.25452941236204 66.52289370789181,33.26376002902871 66.5426572078918,33.27046150430463 66.53952725877484,33.26123088763796 66.51976375877484"
x_38-46_22072016,ГЛБО,x,Профессор Зинкевич,C3D_X,22.07.2016,"33.273156111770355 66.53805955014832,33.266777721562974 66.54203931651836,33.25614432156297 66.52499711651835,33.26252271177035 66.52101735014831,33.273156111770355 66.53805955014832"
x_39-47_22072016,ГЛБО,x,Профессор Зинкевич,C3D_X,22.07.2016,"33.273625810012035 66.53916756651653,33.26726735665463 66.54319263348349,33.254700923321295 66.52334126681681,33.2610593766787 66.51931619984985,33.273625810012035 66.53916756651653"
x_47-57_28072016,ГЛБО,x,Профессор Зинкевич,C3D_X,28.07.2016,"33.30222466707248 66.53640647981747,33.295106566260856 66.54297865351587,33.275336449594185 66.52156630351587,33.28245455040581 66.51499412981747,33.30222466707248 66.53640647981747"
x_63-73_28072016,ГЛБО,x,Профессор Зинкевич,C3D_X,28.07.2016,"33.33687534668418 66.53226922794572,33.3297786199825 66.53887627205428,33.30018618664916 66.50709058872094,33.307282913350846 66.50048354461238,33.33687534668418 66.53226922794572"
x_73-81_22072016,ГЛБО,x,Профессор Зинкевич,C3D_X,22.07.2016,"33.354003102183675 66.5295894915332,33.348227531149654 66.53472407513347,33.33456681448299 66.51935799180015,33.34034238551701 66.51422340819987,33.354003102183675 66.5295894915332"
x_74-82_22072016,ГЛБО,x,Профессор Зинкевич,C3D_X,22.07.2016,"33.340115675448295 66.51391976374813,33.334733457885044 66.51963500291853,33.350592074551706 66.53456955291853,33.35597429211496 66.52885431374813,33.340115675448295 66.51391976374813"
x_75-83_22072016,ГЛБО,x,Профессор Зинкевич,C3D_X,22.07.2016,"33.346645635313614 66.51371210383648,33.34059796468639 66.51837726283019,33.35235209801972 66.53361471283019,33.35839976864695 66.52894955383648,33.346645635313614 66.51371210383648"
x_76-84_22072016,ГЛБО,x,Профессор Зинкевич,C3D_X,22.07.2016,"33.35649758099685 66.52976150245506,33.350096819003156 66.5336933642116,33.340466102336485 66.51801531421161,33.34686686433018 66.51408345245507,33.35649758099685 66.52976150245506"
x_77-85_22072016,ГЛБО,x,Профессор Зинкевич,C3D_X,22.07.2016,"33.34767532626493 66.51300302860486,33.342093707068415 66.51843763806183,33.35694547373508 66.53369115472849,33.362527092931586 66.52825654527152,33.34767532626493 66.51300302860486"
x_78-86_22072016,ГЛБО,x,Профессор Зинкевич,C3D_X,22.07.2016,"33.35851355333378 66.52917618950862,33.3522383133329 66.53338807715805,33.34178724666623 66.51781716049139,33.34806248666711 66.51360527284196,33.35851355333378 66.52917618950862"
x_79-87_22072016,ГЛБО,x,Профессор Зинкевич,C3D_X,22.07.2016,"33.36299939123267 66.52914526306108,33.356497575434 66.5328322036056,33.347835675434 66.51755718693893,33.35433749123267 66.5138702463944,33.36299939123267 66.52914526306108"
x_72-80_22072016,ГЛБО,x,Профессор Зинкевич,C3D_X,22.07.2016,"33.35459648560588 66.5166564843573,33.34757668106079 66.51477094897604,33.34369806439412 66.52921094897603,33.35071786893921 66.53109648435729,33.35459648560588 66.5166564843573"
x_82-84_01072016,ГЛБО,x,Профессор Зинкевич,C3D_X,01.07.2016,"33.333877586805606 66.49738442348477,33.33243881319439 66.49867460984855,33.351282563194395 66.51968854318189,33.35272133680561 66.5183983568181,33.333877586805606 66.49738442348477"
x_83-85_01072016,ГЛБО,x,Профессор Зинкевич,C3D_X,01.07.2016,"33.35274330567508 66.518435161375,33.35126059432493 66.51965173862502,33.33506899432493 66.49991812195834,33.33655170567508 66.49870154470833,33.35274330567508 66.518435161375"
x_82-83_01072016,ГЛБО,x,Профессор Зинкевич,C3D_X,01.07.2016,"33.33655390535342 66.49870530229752,33.335066794646586 66.49991436436913,33.34963677797992 66.51783501436914,33.35112388868675 66.51662595229753,33.33655390535342 66.49870530229752"
x_84-85_01072016,ГЛБО,x,Профессор Зинкевич,C3D_X,01.07.2016,"33.357380532775814 66.51638479857297,33.356128767224185 66.51792903476037,33.33253231722418 66.49880163476037,33.333784082775814 66.49725739857297,33.357380532775814 66.51638479857297"
x_84-86_01072016,ГЛБО,x,Профессор Зинкевич,C3D_X,01.07.2016,"33.33908132599353 66.49693850483474,33.337667407339794 66.49826756183192,33.35604769067313 66.51782144516525,33.35746160932687 66.51649238816807,33.33908132599353 66.49693850483474"
x_85-86_01072016,ГЛБО,x,Профессор Зинкевич,C3D_X,01.07.2016,"33.34099856371088 66.49642846337889,33.33956903628912 66.49773340328777,33.35838485295579 66.51834563662109,33.35981438037755 66.51704069671223,33.34099856371088 66.49642846337889"
x_87-97_30072016,ГЛБО,x,Профессор Зинкевич,C3D_X,30.07.2016,"33.34857613626599 66.49287142616018,33.342233363734 66.50050504050648,33.38496713040067 66.53601254050649,33.391309902932655 66.5283789261601,33.34857613626599 66.49287142616018"
x_85-87_1_01072016,ГЛБО,x,Профессор Зинкевич,C3D_X,01.07.2016,"33.34639526990162 66.49638005801988,33.344812363431714 66.49740014198012,33.35879618009838 66.51909940864678,33.36037908656829 66.51807932468654,33.34639526990162 66.49638005801988"
x_85-87_2_01072016,ГЛБО,x,Профессор Зинкевич,C3D_X,01.07.2016,"33.3597804660366 66.51699079335883,33.35841876729675 66.51839553997449,33.337693517296735 66.49830540664117,33.339055216036584 66.4969006600255,33.3597804660366 66.51699079335883"
x_86-88_1_01072016,ГЛБО,x,Профессор Зинкевич,C3D_X,01.07.2016,"33.360306762088555 66.51794394812683,33.35886850457811 66.51923478520648,33.33956467124478 66.49772635187315,33.34100292875522 66.4964355147935,33.360306762088555 66.51794394812683"
x_86-88_2_01072016,ГЛБО,x,Профессор Зинкевич,C3D_X,01.07.2016,"33.346991261144304 66.49586612578375,33.345470005522365 66.4970128408829,33.3607927888557 66.51734035754957,33.362314044477635 66.51619364245043,33.346991261144304 66.49586612578375"
x_87-89_1_01072016,ГЛБО,x,Профессор Зинкевич,C3D_X,01.07.2016,"33.345137153085545 66.49588624685525,33.34371471358113 66.49720228647807,33.36130336358112 66.51621295314474,33.362725803085546 66.51489691352194,33.345137153085545 66.49588624685525"
x_87-89_2_01072016,ГЛБО,x,Профессор Зинкевич,C3D_X,01.07.2016,"33.36230002061861 66.51616791088692,33.36080681271472 66.51736608911308,33.34485721271472 66.49748918911308,33.34635042061861 66.49629101088692,33.36230002061861 66.51616791088692"
x_88-90_1_01072016,ГЛБО,x,Профессор Зинкевич,C3D_X,01.07.2016,"33.36276507201841 66.51495893030426,33.361285261314926 66.51618070302908,33.3454907279816 66.49705036969574,33.34697053868508 66.49582859697092,33.36276507201841 66.51495893030426"
x_88-90_2_01072016,ГЛБО,x,Профессор Зинкевич,C3D_X,01.07.2016,"33.36488586901073 66.52638011658927,33.36330506432261 66.52740468341072,33.343635530989275 66.49705655007739,33.34521633567739 66.49603198325593,33.36488586901073 66.52638011658927"
x_91-101_30072016,ГЛБО,x,Профессор Зинкевич,C3D_X,30.07.2016,"33.367639155695755 66.50322934057796,33.361610877637574 66.51122079275537,33.39231791097092 66.53438435942203,33.39834618902909 66.52639290724463,33.367639155695755 66.50322934057796"
x_99-109_21072016,ГЛБО,x,Профессор Зинкевич,C3D_X,21.07.2016,"33.40047029675588 66.505966695841,33.39299773657746 66.51195823749235,33.40256365324413 66.523888704159,33.41003621342254 66.51789716250765,33.40047029675588 66.505966695841"
x_101-113_1_21072016,ГЛБО,x,Профессор Зинкевич,C3D_X,21.07.2016,"33.40374984968941 66.51354848727586,33.40251688364392 66.50287981272415,33.39614131697726 66.5036166293908,33.39737428302275 66.51428530394251,33.40374984968941 66.51354848727586"
x_101-113_2_21072016,ГЛБО,x,Профессор Зинкевич,C3D_X,21.07.2016,"33.41886213243443 66.51681490155303,33.41200956756557 66.52378913178029,33.39970708423223 66.51170126511364,33.4065596491011 66.50472703488637,33.41886213243443 66.51681490155303"
x_105-117_21072016,ГЛБО,x,Профессор Зинкевич,C3D_X,21.07.2016,"33.419850833489804 66.50467983019651,33.410858933176875 66.50472650313684,33.410939899843534 66.52032535313683,33.41993180015646 66.5202786801965,33.419850833489804 66.50467983019651"
x_111-121_21072016,ГЛБО,x,Профессор Зинкевич,C3D_X,21.07.2016,"33.43552656002928 66.51485305649031,33.42921063997071 66.52252094350968,33.41221742330405 66.50852389350968,33.41853334336262 66.50085600649032,33.43552656002928 66.51485305649031"
x_113-126_21072016,ГЛБО,x,Профессор Зинкевич,C3D_X,21.07.2016,"33.44172973135971 66.52312077436785,33.44062176864029 66.51242805896548,33.43181461864029 66.51334064229881,33.43292258135971 66.52403335770119,33.44172973135971 66.52312077436785"
x_115-125_21072016,ГЛБО,x,Профессор Зинкевич,C3D_X,21.07.2016,"33.43023622702836 66.499220507709,33.42319293963831 66.50591949229101,33.437654106304976 66.52112390895768,33.44469739369502 66.51442492437566,33.43023622702836 66.499220507709"
x_115-128_21072016,ГЛБО,x,Профессор Зинкевич,C3D_X,21.07.2016,"33.439015659214824 66.50015868851418,33.436432174118515 66.51047854481918,33.42540455745185 66.5077178781525,33.42798804254816 66.4973980218475,33.439015659214824 66.50015868851418"
l_0_28062016,ГЛБО,l,Профессор Зинкевич,C3D_L,28.06.2016,"33.179222 66.554537,33.180612 66.556267,33.551232 66.501138,33.550982 66.499418,33.179222 66.554537"
l_5-6_3_26062016,ГЛБО,l,Профессор Зинкевич,C3D_L,26.06.2016,"33.177145 66.544295,33.178438 66.546152,33.579627 66.486993,33.577632 66.485303,33.177145 66.544295"
l_(-2)_28062016,ГЛБО,l,Профессор Зинкевич,C3D_L,28.06.2016,"33.29498820412681 66.54030694263048,33.29470746253986 66.53817879070284,33.45356344587319 66.51722282403618,33.45384418746014 66.51935097596383,33.29498820412681 66.54030694263048"
l_2-5_20072016,ГЛБО,l,Профессор Зинкевич,C3D_L,20.07.2016,"33.17277689002598 66.54633609909119,33.172487909974016 66.54954186757548,33.18812995997402 66.55095190090881,33.18841894002598 66.54774613242452,33.17277689002598 66.54633609909119"
l_4_2_27062016,ГЛБО,l,Профессор Зинкевич,C3D_L,27.06.2016,"33.12735076631841 66.5572866575513,33.127002733681586 66.55517977578204,33.16674036701493 66.54861557578204,33.167088399651746 66.5507224575513,33.12735076631841 66.5572866575513"
l_4_20072016,ГЛБО,l,Профессор Зинкевич,C3D_L,20.07.2016,"33.20670842118012 66.54424882376836,33.20621424548654 66.54107960956497,33.17241457881988 66.5463499928983,33.17290875451346 66.5495192071017,33.20670842118012 66.54424882376836"
l_4-5_1_20072016,ГЛБО,l,Профессор Зинкевич,C3D_L,20.07.2016,"33.20434899159926 66.54390989815361,33.20378620840075 66.54075706851306,33.17202289173408 66.54642685184639,33.17258567493259 66.54957968148695,33.20434899159926 66.54390989815361"
l_4-5_2_20072016,ГЛБО,l,Профессор Зинкевич,C3D_L,20.07.2016,"33.20440123698802 66.54463376193571,33.20393862967865 66.54145773806428,33.172855829678646 66.5459851380643,33.17331843698802 66.54916116193573,33.20440123698802 66.54463376193571"
l_4-5_3_20072016,ГЛБО,l,Профессор Зинкевич,C3D_L,20.07.2016,"33.20707381088163 66.543425738013,33.20577718911837 66.54059756198701,33.2035216224517 66.54163166198701,33.20481824421496 66.544459838013,33.20707381088163 66.543425738013"
l_5_1_20072016,ГЛБО,l,Профессор Зинкевич,C3D_L,20.07.2016,"33.17255276891446 66.54958817279794,33.17205579775221 66.54641836053541,33.20618874775221 66.5410669105354,33.20668571891446 66.54423672279793,33.17255276891446 66.54958817279794"
l_5_2_20072016,ГЛБО,l,Профессор Зинкевич,C3D_L,20.07.2016,"33.17315194375697 66.54896315281626,33.172639356243025 66.54579698051707,33.203811306243026 66.54075039718376,33.20432389375698 66.54391656948293,33.17315194375697 66.54896315281626"
l_5_2_20072016,ГЛБО,l,Профессор Зинкевич,C3D_L,20.07.2016,"33.17315194375697 66.54896315281626,33.172639356243025 66.54579698051707,33.203811306243026 66.54075039718376,33.20432389375698 66.54391656948293,33.17315194375697 66.54896315281626"
l_5_25062016,ГЛБО,l,Профессор Зинкевич,C3D_L,25.06.2016,"33.17169570820539 66.54821876595338,33.17138435846128 66.54609886737997,33.36640554179461 66.51745608404661,33.36671689153872 66.51957598262003,33.17169570820539 66.54821876595338"
l_5_27062016,ГЛБО,l,Профессор Зинкевич,C3D_L,27.06.2016,"33.447753569970615 66.51274289784847,33.44755003002939 66.5106047688182,33.34782684669605 66.52009795215153,33.34803038663728 66.52223608118182,33.447753569970615 66.51274289784847"
l_5-6_1_26062016,ГЛБО,l,Профессор Зинкевич,C3D_L,26.06.2016,"33.308881413763835 66.52647829869917,33.3086721195695 66.52434160130083,33.32192450290283 66.52304350130082,33.322133797097166 66.52518019869916,33.308881413763835 66.52647829869917"
l_5-6_2_26062016,ГЛБО,l,Профессор Зинкевич,C3D_L,26.06.2016,"33.32457295175608 66.52481235587872,33.32425671491058 66.52269404412127,33.343829948243915 66.51977201078795,33.344146185089414 66.52189032254539,33.32457295175608 66.52481235587872"
l_7_24062016,ГЛБО,l,Профессор Зинкевич,C3D_L,24.06.2016,"33.434804512202135 66.50697891084906,33.4345031211312 66.50486075581763,33.20975440446453 66.53684012248429,33.21005579553547 66.5389582775157,33.434804512202135 66.50697891084906"
l_8-9_1_03072016,ГЛБО,l,Профессор Зинкевич,C3D_L,03.07.2016,"33.37575205560791 66.51140847048634,33.375436544392095 66.50928786284697,33.43163759439209 66.50092607951365,33.43195310560791 66.50304668715302,33.37575205560791 66.51140847048634"
xl_33-41_3-(-1)_22072016,ГЛБО,xl,Профессор Зинкевич,C3D_XL,22.07.2016,"33.25975978391847 66.51873122242009,33.25890724941487 66.52728324424658,33.35068904941487 66.53643279424658,33.35154158391846 66.52788077242009,33.25975978391847 66.51873122242009"
xl_101-128_9-(-2)_21072016,ГЛБО,xl,Профессор Зинкевич,C3D_XL,21.07.2016,"33.409138741825444 66.5251049136171,33.40352332484122 66.5166896863829,33.42698110817455 66.5010364863829,33.43259652515878 66.5094517136171,33.409138741825444 66.5251049136171"
xl_125-134_7-8_28062016,ГЛБО,xl,Профессор Зинкевич,C3D_XL,28.06.2016,"33.453721106985846 66.51721112880558,33.45368652634749 66.51936267119444,33.34681030968082 66.51764490452777,33.346844890319176 66.51549336213891,33.453721106985846 66.51721112880558"
x_160806104200,ГЛБО,x,Профессор Зинкевич,Klein_X,16.08.2017,"33.27170239984254 66.53966160196914,33.26935340249172 66.54124763603264,33.257229185824634 66.5232910526987,33.259578183175456 66.52170501863519,33.27170239984254 66.53966160196914"
x_160806120700,ГЛБО,x,Профессор Зинкевич,Klein_X,16.08.2017,"33.351944613885934 66.53081868447778,33.34981242178729 66.53279655352345,33.335804288453474 66.51769543685623,33.337936480552116 66.51571756781057,33.351944613885934 66.53081868447778"
x_160806122300,ГЛБО,x,Профессор Зинкевич,Klein_X,16.08.2017,"33.337859446167364 66.51560865166644,33.335881322838226 66.51780435300034,33.35260152283881 66.53286770300087,33.35457964616795 66.53067200166697,33.337859446167364 66.51560865166644"
x_160806084100,ГЛБО,x,Профессор Зинкевич,Klein_X,16.08.2017,"33.257618968627156 66.5271096707327,33.25572640037281 66.52940876726825,33.27115595037335 66.54211005060202,33.27304851862769 66.53981095406647,33.257618968627156 66.5271096707327"
x_160806090900,ГЛБО,x,Профессор Зинкевич,Klein_X,16.08.2017,"33.27320474206714 66.54003138374146,33.27099972693388 66.54188962092702,33.25494274359999 66.52283613759303,33.25714775873326 66.52097790040747,33.27320474206714 66.54003138374146"
x_160806093500,ГЛБО,x,Профессор Зинкевич,Klein_X,16.08.2017,"33.25723767283476 66.52124952898015,33.25478109616516 66.522582375687,33.26510212949884 66.54160512568767,33.267558706168444 66.54027227898082,33.25723767283476 66.52124952898015"
x_160806100400,ГЛБО,x,Профессор Зинкевич,Klein_X,16.08.2017,"33.26739902753699 66.53995462115152,33.2652618081303 66.54192278351697,33.25084202479646 66.52626440018311,33.25297924420315 66.52429623781767,33.26739902753699 66.53995462115152"
x_160808110101,ГЛБО,x,Профессор Зинкевич,Klein_X,16.08.2017,"33.27043603853664 66.51745188205727,33.26830163046422 66.51942525594299,33.2886389971316 66.54142222261042,33.290773405204014 66.53944884872472,33.27043603853664 66.51745188205727"
x_160808113000,ГЛБО,x,Профессор Зинкевич,Klein_X,16.08.2017,"33.29962135414806 66.53871696338265,33.29748621485482 66.5406888746191,33.27402204818734 66.5152824246182,33.27615718748057 66.51331051338177,33.29962135414806 66.53871696338265"
x_160808120501,ГЛБО,x,Профессор Зинкевич,Klein_X,16.08.2017,"33.283055525989106 66.51053188960753,33.280926743012614 66.51251434839223,33.30660254301352 66.54008526505989,33.30873132599001 66.53810280627519,33.283055525989106 66.51053188960753"
x_160808124101,ГЛБО,x,Профессор Зинкевич,Klein_X,16.08.2017,"33.31726384284086 66.53726030062931,33.315125992829955 66.53922833737234,33.28873824282901 66.510563704038,33.290876092839916 66.50859566729498,33.31726384284086 66.53726030062931"
x_160808132101,ГЛБО,x,Профессор Зинкевич,Klein_X,16.08.2017,"33.29689059824752 66.50521115635979,33.29477283742185 66.5072108483063,33.324170637422874 66.53834439830739,33.32628839824854 66.53634470636088,33.29689059824752 66.50521115635979"
