name,mosaic_type,direction,date,polygon
l_150801064000,МЛЭ,l,01.08.2015,"33.19213874939552 66.54432919367711,33.19195459060449 66.54327746632289,33.192744590604484 66.54313913632289,33.19292874939551 66.54419086367712,33.19213874939552 66.54432919367711"
l_150801074400,ГЛБО,l,01.08.2015,"33.2722803668002 66.53400218080122,33.271752973199796 66.53083781919878,33.277062973199804 66.52995281919878,33.277590366800204 66.53311718080123,33.2722803668002 66.53400218080122"
l_150723114800,ГЛБО,l,23.07.2015,"33.20020507063185 66.54502393476238,33.19975158936815 66.54075606523762,33.27769325936815 66.53247439523761,33.278146740631854 66.5367422647624,33.20020507063185 66.54502393476238"
l_150724071400,ГЛБО,l,24.07.2015,"33.12229485696958 66.55784245017347,33.12228180303042 66.55655420982654,33.119978473030415 66.55657754982654,33.11999152696958 66.55786579017347,33.12229485696958 66.55784245017347"
x_PROF03,ГЛБО,x,23.09.2015,"32.89076345307936 66.58389980319944,32.89067651358731 66.58229689680056,32.92672153025398 66.58034186346723,32.92680846974603 66.58194476986611,32.89076345307936 66.58389980319944"
x_PROF04,ГЛБО,x,23.09.2015,"32.889818612791984 66.58367055095741,32.889734720541355 66.58216614904259,32.92586970387469 66.5801510990426,32.92595359612532 66.58165550095741,32.889818612791984 66.58367055095741"
x_PROF05,ГЛБО,x,23.09.2015,"32.924722386788204 66.5814526058394,32.924630879878464 66.57985072749392,32.889852613211794 66.58183742749394,32.889944120121534 66.58343930583942,32.924722386788204 66.5814526058394"
x_63-65_28072016,ГЛБО,x,28.07.2016,"33.29689059824752 66.50521115635979,33.29477283742185 66.5072108483063,33.324170637422874 66.53834439830739,33.32628839824854 66.53634470636088,33.29689059824752 66.50521115635979"
x_71-73_28072016,ГЛБО,x,28.07.2016,"33.31371191784485 66.50259822420975,33.311592117825704 66.50459521378946,33.341390751160084 66.53622639712391,33.34351055117923 66.5342294075442,33.31371191784485 66.50259822420975"
x_74-76_25072016,ГЛБО,x,25.07.2016,"33.327772673828285 66.50957510103842,33.32545559517659 66.51122810362796,33.31984789517639 66.50336757029433,33.32216497382808 66.50171456770481,33.327772673828285 66.50957510103842"
x_74-78_29062016,ГЛБО,x,29.06.2016,"33.34626740850779 66.51871700372737,33.345769727165084 66.52189020093968,33.330894927164564 66.51955725093961,33.331392608507265 66.5163840537273,33.34626740850779 66.51871700372737"
x_75-77_22072016,ГЛБО,x,22.07.2016,"33.35164887707454 66.51564218704564,33.34898709193199 66.51511815095441,33.346065541931885 66.52995785095491,33.348727327074435 66.53048188704615,33.35164887707454 66.51564218704564"
x_75-77_28072016,ГЛБО,x,28.07.2016,"33.351463640996414 66.53237804774913,33.349339161343444 66.53436759025215,33.327872811342694 66.5114453235847,33.32999729099566 66.50945578108167,33.351463640996414 66.53237804774913"
x_75-78_25072016,ГЛБО,x,25.07.2016,"33.3493547595189 66.51731105875835,33.34764727615417 66.51981034590861,33.32280319281996 66.50283716257466,33.3245106761847 66.5003378754244,33.3493547595189 66.51731105875835"
x_76-78_22072016,ГЛБО,x,22.07.2016,"33.351944613885934 66.53081868447778,33.34981242178729 66.53279655352345,33.335804288453474 66.51769543685623,33.337936480552116 66.51571756781057,33.351944613885934 66.53081868447778"
x_76-78_25072016,ГЛБО,x,25.07.2016,"33.34978431833978 66.5185204427958,33.34800848399997 66.52095056187119,33.323121250665764 66.50276396187057,33.324897085005574 66.5003338427952,33.34978431833978 66.5185204427958"
x_77-79_22072016,ГЛБО,x,22.07.2016,"33.337859446167364 66.51560865166644,33.335881322838226 66.51780435300034,33.35260152283881 66.53286770300087,33.35457964616795 66.53067200166697,33.337859446167364 66.51560865166644"
x_122-125_21072016,ГЛБО,x,21.07.2016,"33.43725629324415 66.50471821253284,33.436088075768424 66.50763155879991,33.42587759243473 66.50353727546643,33.42704580991045 66.50062392919935,33.43725629324415 66.50471821253284"
x_130-135_29062016,ГЛБО,x,29.06.2016,"33.45302476236304 66.50053442939071,33.45091887331727 66.502555175275,33.46089643998429 66.51295314194206,33.46300232903006 66.51093239605777,33.45302476236304 66.50053442939071"
l_0_28062016,ГЛБО,l,28.06.2016,"33.182689 66.553527,33.184922 66.556205,33.555467 66.501483,33.55251 66.498542,33.182689 66.553527"
l_2-5_20072016,ГЛБО,l,20.07.2016,"33.216648778 66.5395182431,33.215533402 66.5429757999,33.2189697798 66.5429710367,33.2766420976 66.5346636299,33.2755027979 66.5351873024,33.1861172022 66.548164906,33.188100485 66.5507056414,33.2786379162 66.5375944606,33.2806033319 66.5377865781,33.4729577634 66.5094797344,33.4760103091 66.5067316883,33.4740198182 66.5051727023,33.4702398367 66.5040103338,33.4565161464 66.5040509593,33.216157935 66.5395189209,33.216648778 66.5395182431,33.216648778 66.5395182431"
l_4_27062016,ГЛБО,l,27.06.2016,"33.149952 66.550635,33.152305 66.553323,33.446363 66.509938,33.442513 66.50767,33.149952 66.550635"
l_2_27062016,ГЛБО,l,27.06.2016,"33.177297 66.550518,33.177658 66.553293,33.446007 66.513942,33.443053 66.511425,33.177297 66.550518"
l_(-1)-(-2)_1_15072016,ГЛБО,l,15.07.2016,"33.26736423853035 66.54699533844736,33.26687433047033 66.54382346622147,33.24682994713629 66.54691939955491,33.24731985519631 66.55009127178079,33.26736423853035 66.54699533844736"
l_0-(-1)_21072016,ГЛБО,l,21.07.2016,"33.44135688220668 66.51907004376783,33.44085945347288 66.51589306089905,33.43301347013927 66.51712152756573,33.43351089887307 66.52029851043451,33.44135688220668 66.51907004376783"
x_47-57_28072016,ГЛБО,x,28.07.2016,"33.30222466707248 66.53640647981747,33.295106566260856 66.54297865351587,33.275336449594185 66.52156630351587,33.28245455040581 66.51499412981747,33.30222466707248 66.53640647981747"
x_63-73_28072016,ГЛБО,x,28.07.2016,"33.33687534668418 66.53226922794572,33.3297786199825 66.53887627205428,33.30018618664916 66.50709058872094,33.307282913350846 66.50048354461238,33.33687534668418 66.53226922794572"
x_73-81_22072016,ГЛБО,x,22.07.2016,"33.354003102183675 66.5295894915332,33.348227531149654 66.53472407513347,33.33456681448299 66.51935799180015,33.34034238551701 66.51422340819987,33.354003102183675 66.5295894915332"
x_74-82_22072016,ГЛБО,x,22.07.2016,"33.340115675448295 66.51391976374813,33.334733457885044 66.51963500291853,33.350592074551706 66.53456955291853,33.35597429211496 66.52885431374813,33.340115675448295 66.51391976374813"
x_75-83_22072016,ГЛБО,x,22.07.2016,"33.346645635313614 66.51371210383648,33.34059796468639 66.51837726283019,33.35235209801972 66.53361471283019,33.35839976864695 66.52894955383648,33.346645635313614 66.51371210383648"
x_76-84_22072016,ГЛБО,x,22.07.2016,"33.35649758099685 66.52976150245506,33.350096819003156 66.5336933642116,33.340466102336485 66.51801531421161,33.34686686433018 66.51408345245507,33.35649758099685 66.52976150245506"
x_77-85_22072016,ГЛБО,x,22.07.2016,"33.34767532626493 66.51300302860486,33.342093707068415 66.51843763806183,33.35694547373508 66.53369115472849,33.362527092931586 66.52825654527152,33.34767532626493 66.51300302860486"
x_78-86_22072016,ГЛБО,x,22.07.2016,"33.35851355333378 66.52917618950862,33.3522383133329 66.53338807715805,33.34178724666623 66.51781716049139,33.34806248666711 66.51360527284196,33.35851355333378 66.52917618950862"
x_115-125_21072016,ГЛБО,x,21.07.2016,"33.43023622702836 66.499220507709,33.42319293963831 66.50591949229101,33.437654106304976 66.52112390895768,33.44469739369502 66.51442492437566,33.43023622702836 66.499220507709"
x_115-128_21072016,ГЛБО,x,21.07.2016,"33.439015659214824 66.50015868851418,33.436432174118515 66.51047854481918,33.42540455745185 66.5077178781525,33.42798804254816 66.4973980218475,33.439015659214824 66.50015868851418"
l_0_28062016,ГЛБО,l,28.06.2016,"33.179222 66.554537,33.180612 66.556267,33.551232 66.501138,33.550982 66.499418,33.179222 66.554537"
l_5-6_3_26062016,ГЛБО,l,26.06.2016,"33.177145 66.544295,33.178438 66.546152,33.579627 66.486993,33.577632 66.485303,33.177145 66.544295"
l_(-2)_28062016,ГЛБО,l,28.06.2016,"33.29498820412681 66.54030694263048,33.29470746253986 66.53817879070284,33.45356344587319 66.51722282403618,33.45384418746014 66.51935097596383,33.29498820412681 66.54030694263048"
l_2-5_20072016,ГЛБО,l,20.07.2016,"33.17277689002598 66.54633609909119,33.172487909974016 66.54954186757548,33.18812995997402 66.55095190090881,33.18841894002598 66.54774613242452,33.17277689002598 66.54633609909119"
l_4_2_27062016,ГЛБО,l,27.06.2016,"33.12735076631841 66.5572866575513,33.127002733681586 66.55517977578204,33.16674036701493 66.54861557578204,33.167088399651746 66.5507224575513,33.12735076631841 66.5572866575513"
l_4_20072016,ГЛБО,l,20.07.2016,"33.20670842118012 66.54424882376836,33.20621424548654 66.54107960956497,33.17241457881988 66.5463499928983,33.17290875451346 66.5495192071017,33.20670842118012 66.54424882376836"
x_160806120700,ГЛБО,x,16.08.2017,"33.351944613885934 66.53081868447778,33.34981242178729 66.53279655352345,33.335804288453474 66.51769543685623,33.337936480552116 66.51571756781057,33.351944613885934 66.53081868447778"
x_160806122300,ГЛБО,x,16.08.2017,"33.337859446167364 66.51560865166644,33.335881322838226 66.51780435300034,33.35260152283881 66.53286770300087,33.35457964616795 66.53067200166697,33.337859446167364 66.51560865166644"
x_160806084100,ГЛБО,x,16.08.2017,"33.257618968627156 66.5271096707327,33.25572640037281 66.52940876726825,33.27115595037335 66.54211005060202,33.27304851862769 66.53981095406647,33.257618968627156 66.5271096707327"
x_160806090900,ГЛБО,x,16.08.2017,"33.27320474206714 66.54003138374146,33.27099972693388 66.54188962092702,33.25494274359999 66.52283613759303,33.25714775873326 66.52097790040747,33.27320474206714 66.54003138374146"
x_160806093500,ГЛБО,x,16.08.2017,"33.25723767283476 66.52124952898015,33.25478109616516 66.522582375687,33.26510212949884 66.54160512568767,33.267558706168444 66.54027227898082,33.25723767283476 66.52124952898015"
x_160806100400,ГЛБО,x,16.08.2017,"33.26739902753699 66.53995462115152,33.2652618081303 66.54192278351697,33.25084202479646 66.52626440018311,33.25297924420315 66.52429623781767,33.26739902753699 66.53995462115152"
x_160808110101,ГЛБО,x,16.08.2017,"33.27043603853664 66.51745188205727,33.26830163046422 66.51942525594299,33.2886389971316 66.54142222261042,33.290773405204014 66.53944884872472,33.27043603853664 66.51745188205727"
